…
### Finally we can round the number of sports balls to the nearest integer and convert the result to an integer variable using `as.integer`.

``` r
mr_trash_wheel = read_excel("./data/TrashWheelCollectionTotals.xlsx", sheet = "Mr. Trash Wheel", range = "A2:N406") %>%
  janitor::clean_names() %>%
  rename(weight = weight_tons, volume = volume_cubic_yards) %>%
  drop_na(dumpster) %>%
  mutate(sports_balls = as.integer(sports_balls, 0))
    
mr_trash_wheel
```

    ## # A tibble: 344 x 14
    ##    dumpster month  year date                weight volume plastic_bottles
    ##       <dbl> <chr> <dbl> <dttm>               <dbl>  <dbl>           <dbl>
    ##  1        1 May    2014 2014-05-16 00:00:00   4.31     18            1450
    ##  2        2 May    2014 2014-05-16 00:00:00   2.74     13            1120
    ##  3        3 May    2014 2014-05-16 00:00:00   3.45     15            2450
    ##  4        4 May    2014 2014-05-17 00:00:00   3.1      15            2380
    ##  5        5 May    2014 2014-05-17 00:00:00   4.06     18             980
    ##  6        6 May    2014 2014-05-20 00:00:00   2.71     13            1430
    ##  7        7 May    2014 2014-05-21 00:00:00   1.91      8             910
    ##  8        8 May    2014 2014-05-28 00:00:00   3.7      16            3580
    ##  9        9 June   2014 2014-06-05 00:00:00   2.52     14            2400
    ## 10       10 June   2014 2014-06-11 00:00:00   3.76     18            1340
    ## # … with 334 more rows, and 7 more variables: polystyrene <dbl>,
    ## #   cigarette_butts <dbl>, glass_bottles <dbl>, grocery_bags <dbl>,
    ## #   chip_bags <dbl>, sports_balls <int>, homes_powered <dbl>
